5 Subset Data – Introduction to R Training - July 2025
…
df_wq[1,] # entire row

# A tibble: 1 × 20
  Station Date        Chla Pheophytin TotAlkalinity DissAmmonia
  <chr>   <date>     <dbl>      <dbl>         <dbl>       <dbl>
1 P8      2020-01-16  0.64        0.5            98        0.15
# ℹ 14 more variables: DissNitrateNitrite <dbl>, DOC <dbl>, TOC <dbl>,
#   DON <dbl>, TotPhos <dbl>, DissOrthophos <dbl>, TDS <dbl>, TSS <dbl>,
#   TKN <dbl>, Depth <dbl>, Secchi <dbl>, Microcystis <dbl>,
#   SpCndSurface <dbl>, WTSurface <dbl>

df_wq[,1] # entire column

# A tibble: 62 × 1
   Station
   <chr>  
 1 P8     
 2 D7     
 3 P8     
 4 D7     
 5 P8     
 6 D7     
 7 P8     
 8 D7     
 9 P8     
10 D7     
# ℹ 52 more rows
…
5.6.3 less than < and greater than >

Sometimes, we want all values above or below; we can use less/greater than (< and >) for this task. Similarly, we can use “less/greater than or equal to” (<= and >=)

df_wq %>% filter(Date >= '2020-02-01')

# A tibble: 60 × 20
   Station Date        Chla Pheophytin TotAlkalinity DissAmmonia
   <chr>   <date>     <dbl>      <dbl>         <dbl>       <dbl>
 1 P8      2020-02-14  1.46       0.69            81        0.25
 2 D7      2020-02-20  2.15       0.5             86        0.14
 3 P8      2020-03-03  1.4        0.56            80        0.11
 4 D7      2020-03-06  1.89       1.13            93        0.22
 5 P8      2020-06-11  4.73       1.25            59        0.05
 6 D7      2020-06-17  1.74       0.89            78        0.05
 7 P8      2020-07-13  6.4        0.88            63        0.05
 8 D7      2020-07-16  2.79       0.85            80        0.05
 9 P8      2020-08-11 16.5        1.41            65        0.05
10 D7      2020-08-17  0.5        6.13            83        0.05
# ℹ 50 more rows
# ℹ 14 more variables: DissNitrateNitrite <dbl>, DOC <dbl>, TOC <dbl>,
#   DON <dbl>, TotPhos <dbl>, DissOrthophos <dbl>, TDS <dbl>, TSS <dbl>,
#   TKN <dbl>, Depth <dbl>, Secchi <dbl>, Microcystis <dbl>,
#   SpCndSurface <dbl>, WTSurface <dbl>
…
