Introduction to R Training - July 2024 - 4 Subset Data
…
df_wq[1,] # entire row

# A tibble: 1 × 20
  Station Date        Chla Pheophytin TotAlkalinity DissAmmonia
  <chr>   <date>     <dbl>      <dbl>         <dbl>       <dbl>
1 P8      2020-01-16  0.64        0.5            98        0.15
# ℹ 14 more variables: DissNitrateNitrite <dbl>, DOC <dbl>, TOC <dbl>,
#   DON <dbl>, TotPhos <dbl>, DissOrthophos <dbl>, TDS <dbl>, TSS <dbl>,
#   TKN <dbl>, Depth <dbl>, Secchi <dbl>, Microcystis <dbl>,
#   SpCndSurface <dbl>, WTSurface <dbl>

df_wq[,1] # entire column

# A tibble: 62 × 1
   Station
   <chr>  
 1 P8     
 2 D7     
 3 P8     
 4 D7     
 5 P8     
 6 D7     
 7 P8     
 8 D7     
 9 P8     
10 D7     
# ℹ 52 more rows

You can also subset multiple columns/rows at once by using a :

df_wq[,2:4] # all rows, 2-4th columns

# A tibble: 62 × 3
   Date        Chla Pheophytin
   <date>     <dbl>      <dbl>
 1 2020-01-16  0.64       0.5 
 2 2020-01-22  0.67       0.87
 3 2020-02-14  1.46       0.69
 4 2020-02-20  2.15       0.5 
 5 2020-03-03  1.4        0.56
 6 2020-03-06  1.89       1.13
 7 2020-06-11  4.73       1.25
 8 2020-06-17  1.74       0.89
 9 2020-07-13  6.4        0.88
10 2020-07-16  2.79       0.85
# ℹ 52 more rows

4.3 Subset by Column Names

Subsetting is very powerful. However, if we specify values by their numerical index, we can get confused about what we’re accessing. For example, if I wanted to work with DissAmmonia data, I would have to know that it’s the 4th column in my data frame. That can get unwieldy with complex datasets.

Instead, we can use the column header to call a particular column:

df_wq['DissAmmonia']

# A tibble: 62 × 1
   DissAmmonia
         <dbl>
 1        0.15
 2        0.21
 3        0.25
 4        0.14
 5        0.11
 6        0.22
 7        0.05
 8        0.05
 9        0.05
10        0.05
# ℹ 52 more rows
…
str(df_wq$DissAmmonia)

 num [1:62] 0.15 0.21 0.25 0.14 0.11 0.22 0.05 0.05 0.05 0.05 ...

To select multiple columns by name, we use our : technique within the select function from the dplyr package (in tidyverse):

df_wq %>% select(Station:Pheophytin)

# A tibble: 62 × 4
   Station Date        Chla Pheophytin
   <chr>   <date>     <dbl>      <dbl>
 1 P8      2020-01-16  0.64       0.5 
 2 D7      2020-01-22  0.67       0.87
 3 P8      2020-02-14  1.46       0.69
 4 D7      2020-02-20  2.15       0.5 
 5 P8      2020-03-03  1.4        0.56
 6 D7      2020-03-06  1.89       1.13
 7 P8      2020-06-11  4.73       1.25
 8 D7      2020-06-17  1.74       0.89
 9 P8      2020-07-13  6.4        0.88
10 D7      2020-07-16  2.79       0.85
# ℹ 52 more rows
…
4.5.3 less than < and greater than >

Sometimes, we want all values above or below:

df_wq %>% filter(Date >= '2020-02-01')

# A tibble: 60 × 20
   Station Date        Chla Pheophytin TotAlkalinity DissAmmonia
   <chr>   <date>     <dbl>      <dbl>         <dbl>       <dbl>
 1 P8      2020-02-14  1.46       0.69            81        0.25
 2 D7      2020-02-20  2.15       0.5             86        0.14
 3 P8      2020-03-03  1.4        0.56            80        0.11
 4 D7      2020-03-06  1.89       1.13            93        0.22
 5 P8      2020-06-11  4.73       1.25            59        0.05
 6 D7      2020-06-17  1.74       0.89            78        0.05
 7 P8      2020-07-13  6.4        0.88            63        0.05
 8 D7      2020-07-16  2.79       0.85            80        0.05
 9 P8      2020-08-11 16.5        1.41            65        0.05
10 D7      2020-08-17  0.5        6.13            83        0.05
# ℹ 50 more rows
# ℹ 14 more variables: DissNitrateNitrite <dbl>, DOC <dbl>, TOC <dbl>,
#   DON <dbl>, TotPhos <dbl>, DissOrthophos <dbl>, TDS <dbl>, TSS <dbl>,
#   TKN <dbl>, Depth <dbl>, Secchi <dbl>, Microcystis <dbl>,
#   SpCndSurface <dbl>, WTSurface <dbl>
…
