6 Mutate Data – Introduction to R Training - July 2025
…
6.3 Modify Existing Columns

We can also use mutate to modify existing columns. For example, say we want to add 20 to every Chla value:

df_wq %>%
  mutate(Chla = Chla+20)

# A tibble: 62 × 20
   Station Date        Chla Pheophytin TotAlkalinity DissAmmonia
   <chr>   <date>     <dbl>      <dbl>         <dbl>       <dbl>
 1 P8      2020-01-16  20.6       0.5             98        0.15
 2 D7      2020-01-22  20.7       0.87            82        0.21
 3 P8      2020-02-14  21.5       0.69            81        0.25
 4 D7      2020-02-20  22.2       0.5             86        0.14
 5 P8      2020-03-03  21.4       0.56            80        0.11
 6 D7      2020-03-06  21.9       1.13            93        0.22
 7 P8      2020-06-11  24.7       1.25            59        0.05
 8 D7      2020-06-17  21.7       0.89            78        0.05
 9 P8      2020-07-13  26.4       0.88            63        0.05
10 D7      2020-07-16  22.8       0.85            80        0.05
# ℹ 52 more rows
# ℹ 14 more variables: DissNitrateNitrite <dbl>, DOC <dbl>, TOC <dbl>,
#   DON <dbl>, TotPhos <dbl>, DissOrthophos <dbl>, TDS <dbl>, TSS <dbl>,
#   TKN <dbl>, Depth <dbl>, Secchi <dbl>, Microcystis <dbl>,
#   SpCndSurface <dbl>, WTSurface <dbl>
…
Since every row must get a value, it’s important to end with TRUE ~ result to handle all remaining cases.

To go back to our example, the code would look like this:

df_wq %>%
  mutate(
    Chla =
      case_when(Station == 'P8' ~ Chla + 20, # if station is P8, add 20
              TRUE ~ Chla) # else, keep as previous value
  ) %>%
  select(c(Station:Date), Chla)

# A tibble: 62 × 3
   Station Date        Chla
   <chr>   <date>     <dbl>
 1 P8      2020-01-16 20.6 
 2 D7      2020-01-22  0.67
 3 P8      2020-02-14 21.5 
 4 D7      2020-02-20  2.15
 5 P8      2020-03-03 21.4 
 6 D7      2020-03-06  1.89
 7 P8      2020-06-11 24.7 
 8 D7      2020-06-17  1.74
 9 P8      2020-07-13 26.4 
10 D7      2020-07-16  2.79
# ℹ 52 more rows
…
6.5 Rename

Sometimes, we want to rename our columns (eg. if working with multiple data frames, we want the columns to be standardized). We can do this using the rename function from the dplyr package:

df_wq %>%
  rename(StationCode = Station)

# A tibble: 62 × 20
   StationCode Date        Chla Pheophytin TotAlkalinity DissAmmonia
   <chr>       <date>     <dbl>      <dbl>         <dbl>       <dbl>
 1 P8          2020-01-16  0.64       0.5             98        0.15
 2 D7          2020-01-22  0.67       0.87            82        0.21
 3 P8          2020-02-14  1.46       0.69            81        0.25
 4 D7          2020-02-20  2.15       0.5             86        0.14
 5 P8          2020-03-03  1.4        0.56            80        0.11
 6 D7          2020-03-06  1.89       1.13            93        0.22
 7 P8          2020-06-11  4.73       1.25            59        0.05
 8 D7          2020-06-17  1.74       0.89            78        0.05
 9 P8          2020-07-13  6.4        0.88            63        0.05
10 D7          2020-07-16  2.79       0.85            80        0.05
# ℹ 52 more rows
# ℹ 14 more variables: DissNitrateNitrite <dbl>, DOC <dbl>, TOC <dbl>,
#   DON <dbl>, TotPhos <dbl>, DissOrthophos <dbl>, TDS <dbl>, TSS <dbl>,
#   TKN <dbl>, Depth <dbl>, Secchi <dbl>, Microcystis <dbl>,
#   SpCndSurface <dbl>, WTSurface <dbl>
