10 Binds and Joins – Introduction to R Training - July 2025
…
 [1] "Station"            "Date"               "Chla"              
 [4] "Pheophytin"         "TotAlkalinity"      "DissAmmonia"       
 [7] "DissNitrateNitrite" "DOC"                "TOC"               
[10] "DON"                "TotPhos"            "DissOrthophos"     
[13] "TDS"                "TSS"                "TKN"               
[16] "Depth"              "Secchi"             "Microcystis"       
[19] "SpCndSurface"       "WTSurface"         

You can see that all the column names and their types (classes) are the same which makes combining them by row a simple operation. We’ll use the bind_rows function to add the 2019 data to the 2020-2022 data and assign it to a new data frame object.

df_wq_2019_2022 <- bind_rows(df_wq_2019, df_wq)
df_wq_2019_2022

# A tibble: 86 × 20
   Station Date        Chla Pheophytin TotAlkalinity DissAmmonia
   <chr>   <date>     <dbl>      <dbl>         <dbl>       <dbl>
 1 P8      2019-01-15  0.84       1.21            NA       0.2  
 2 D7      2019-01-17  0.88       0.64            NA       0.214
 3 P8      2019-02-15  2.29       1.03            NA       0.09 
 4 D7      2019-02-20  1.92       2.32            NA       0.07 
 5 P8      2019-03-14  2.6        1.42            NA       0.05 
 6 D7      2019-03-18  2.53       1.35            NA       0.05 
 7 P8      2019-04-12  1.59       1.25            NA       0.05 
 8 D7      2019-04-16  2.81       1.19            NA       0.05 
 9 P8      2019-05-13  1.03       0.5             NA       0.05 
10 D7      2019-05-15  2.1        0.69            NA       0.05 
# ℹ 76 more rows
# ℹ 14 more variables: DissNitrateNitrite <dbl>, DOC <dbl>, TOC <dbl>,
#   DON <dbl>, TotPhos <dbl>, DissOrthophos <dbl>, TDS <dbl>, TSS <dbl>,
#   TKN <dbl>, Depth <dbl>, Secchi <dbl>, Microcystis <dbl>,
#   SpCndSurface <dbl>, WTSurface <dbl>
…
